<?xml version="1.0" encoding="UTF-8" standalone="no"?>
<!-- Created with Inkscape (http://www.inkscape.org/) -->

<svg
   width="25.400002mm"
   height="12.026655mm"
   version="1.1"
   viewBox="0 0 25.400001 12.026655"
   id="svg14"
   sodipodi:docname="icewm.svg"
   xml:space="preserve"
   inkscape:version="1.2.1 (9c6d41e410, 2022-07-14)"
   xmlns:inkscape="http://www.inkscape.org/namespaces/inkscape"
   xmlns:sodipodi="http://sodipodi.sourceforge.net/DTD/sodipodi-0.dtd"
   xmlns:xlink="http://www.w3.org/1999/xlink"
   xmlns="http://www.w3.org/2000/svg"
   xmlns:svg="http://www.w3.org/2000/svg"><defs
     id="defs18"><linearGradient
       inkscape:collect="always"
       id="linearGradient533"><stop
         style="stop-color:#b9cdde;stop-opacity:1;"
         offset="0"
         id="stop529" /><stop
         style="stop-color:#334057;stop-opacity:1;"
         offset="1"
         id="stop531" /></linearGradient><linearGradient
       id="linearGradient4285"><stop
         offset="0"
         style="stop-color:#fefefe;stop-opacity:1"
         id="stop4287" /><stop
         offset="0.5"
         style="stop-color:#fefefe;stop-opacity:0.70866144"
         id="stop5732" /><stop
         offset="1"
         style="stop-color:#fefefe;stop-opacity:0"
         id="stop4289" /></linearGradient><linearGradient
       id="linearGradient4239"><stop
         offset="0"
         style="stop-color:#e2f39e;stop-opacity:0"
         id="stop5734" /><stop
         offset="0.30000001"
         style="stop-color:#e0f298;stop-opacity:0.29133859"
         id="stop5736" /><stop
         offset="1"
         style="stop-color:#e0f297;stop-opacity:0.16535433"
         id="stop4243" /></linearGradient><linearGradient
       gradientTransform="scale(1.0058652,0.994169)"
       gradientUnits="userSpaceOnUse"
       id="ButtonShadow"
       y2="7.0165396"
       x2="45.447727"
       y1="92.539597"
       x1="45.447727"><stop
         offset="0"
         style="stop-color:#000000;stop-opacity:1"
         id="stop3750" /><stop
         offset="1"
         style="stop-color:#000000;stop-opacity:0.58823532"
         id="stop3752" /></linearGradient><linearGradient
       id="linearGradient3737"><stop
         offset="0"
         style="stop-color:#fefefe;stop-opacity:1"
         id="stop3739" /><stop
         offset="1"
         style="stop-color:#fefefe;stop-opacity:0"
         id="stop3741" /></linearGradient><linearGradient
       id="linearGradient3700"><stop
         offset="0"
         style="stop-color:#2276c5;stop-opacity:1"
         id="stop3702" /><stop
         offset="1"
         style="stop-color:#68baf4;stop-opacity:1"
         id="stop3704" /></linearGradient><filter
       id="filter3174"
       color-interpolation-filters="sRGB"
       x="-0.047720931"
       y="-0.048282355"
       width="1.0954419"
       height="1.0965647"><feGaussianBlur
         stdDeviation="1.71"
         id="feGaussianBlur3176" /></filter><linearGradient
       gradientUnits="userSpaceOnUse"
       xlink:href="#linearGradient3737"
       id="linearGradient3613"
       y2="138.66119"
       x2="48"
       y1="20.220806"
       x1="48" /><clipPath
       id="clipPath3613"><rect
         style="fill:#fefefe;fill-opacity:1;fill-rule:nonzero;stroke:none"
         id="rect3615"
         y="6"
         x="6"
         ry="6"
         rx="6"
         height="84"
         width="84" /></clipPath><linearGradient
       gradientTransform="translate(-110)"
       gradientUnits="userSpaceOnUse"
       xlink:href="#linearGradient3700"
       id="linearGradient3151"
       y2="5.9877172"
       x2="48"
       y1="90"
       x1="48" /><linearGradient
       gradientTransform="translate(-110)"
       gradientUnits="userSpaceOnUse"
       xlink:href="#linearGradient3737"
       id="linearGradient3153"
       y2="63.893143"
       x2="36.357143"
       y1="6"
       x1="36.357143" /><radialGradient
       gradientTransform="matrix(1.1573129,0,0,0.99590774,-117.55102,0.19713193)"
       gradientUnits="userSpaceOnUse"
       xlink:href="#linearGradient3737"
       id="radialGradient3155"
       fy="90.171875"
       fx="48"
       r="42"
       cy="90.171875"
       cx="48" /><linearGradient
       gradientUnits="userSpaceOnUse"
       id="ButtonColor"
       y2="0.99929649"
       x2="10.31979"
       y1="21"
       x1="10.31979"><stop
         offset="0"
         style="stop-color:#2c67a6;stop-opacity:1"
         id="stop3189" /><stop
         offset="1"
         style="stop-color:#6bb5ff;stop-opacity:1"
         id="stop3191" /></linearGradient><linearGradient
       gradientUnits="userSpaceOnUse"
       xlink:href="#ButtonColor"
       id="linearGradient3948"
       y2="5.9877172"
       x2="48"
       y1="90"
       x1="48"
       gradientTransform="translate(-134.19626,-58.290756)" /><linearGradient
       gradientUnits="userSpaceOnUse"
       xlink:href="#linearGradient3737"
       id="linearGradient3967"
       y2="64.215118"
       x2="44"
       y1="6"
       x1="44"
       gradientTransform="translate(-27.22108,29.454581)" /><radialGradient
       gradientTransform="matrix(1.1428571,0,0,0.95238095,-34.078223,32.883152)"
       gradientUnits="userSpaceOnUse"
       xlink:href="#linearGradient3737"
       id="radialGradient3982"
       fy="72"
       fx="48"
       r="42"
       cy="72"
       cx="48" /><linearGradient
       gradientTransform="translate(0,1)"
       gradientUnits="userSpaceOnUse"
       xlink:href="#ButtonShadow"
       id="linearGradient3989"
       y2="5.9877172"
       x2="48"
       y1="90"
       x1="48" /><linearGradient
       gradientTransform="translate(-1,1)"
       gradientUnits="userSpaceOnUse"
       xlink:href="#ButtonShadow"
       id="linearGradient4001"
       y2="5.9877172"
       x2="48"
       y1="90.868095"
       x1="48" /><filter
       id="filter4055"
       color-interpolation-filters="sRGB"
       height="1.388211"
       width="1.388211"
       y="-0.19410552"
       x="-0.19410552"><feGaussianBlur
         stdDeviation="5.3379019"
         id="feGaussianBlur4057" /></filter><radialGradient
       gradientTransform="matrix(0.5,0,0,0.52380952,12,17.797619)"
       gradientUnits="userSpaceOnUse"
       xlink:href="#linearGradient4285"
       id="radialGradient5730"
       fy="34.75"
       fx="24"
       r="42"
       cy="34.75"
       cx="24" /><linearGradient
       gradientUnits="userSpaceOnUse"
       xlink:href="#linearGradient4239"
       id="linearGradient5770"
       y2="24"
       x2="96"
       y1="36"
       x1="44" /><linearGradient
       gradientUnits="userSpaceOnUse"
       xlink:href="#linearGradient4239"
       id="linearGradient5774"
       y2="48"
       x2="96"
       y1="45"
       x1="42" /><linearGradient
       gradientUnits="userSpaceOnUse"
       xlink:href="#linearGradient4239"
       id="linearGradient5776"
       y2="76"
       x2="82"
       y1="51"
       x1="36" /><linearGradient
       gradientUnits="userSpaceOnUse"
       xlink:href="#linearGradient4239"
       id="linearGradient5778"
       y2="72"
       x2="48"
       y1="56"
       x1="32" /><linearGradient
       gradientUnits="userSpaceOnUse"
       xlink:href="#linearGradient4239"
       id="linearGradient5780"
       y2="0"
       x2="8"
       y1="16.421875"
       x1="11.46875" /><linearGradient
       gradientUnits="userSpaceOnUse"
       xlink:href="#linearGradient4239"
       id="linearGradient5782"
       y2="6"
       x2="39"
       y1="16"
       x1="32" /><linearGradient
       gradientUnits="userSpaceOnUse"
       xlink:href="#linearGradient4239"
       id="linearGradient5784"
       y2="1"
       x2="70"
       y1="23"
       x1="42" /><linearGradient
       inkscape:collect="always"
       xlink:href="#linearGradient533"
       id="linearGradient535"
       x1="380.50583"
       y1="-2029.9529"
       x2="387.66833"
       y2="328.03003"
       gradientUnits="userSpaceOnUse"
       gradientTransform="matrix(0.03214719,0,0,0.03214719,0.45383259,0.78304238)" /><filter
       style="color-interpolation-filters:sRGB"
       inkscape:label="Drop Shadow"
       id="filter1165"
       x="-0.039290265"
       y="-0.0976205"
       width="1.0856746"
       height="1.2128669"><feFlood
         flood-opacity="0.498039"
         flood-color="rgb(0,0,0)"
         result="flood"
         id="feFlood1155" /><feComposite
         in="flood"
         in2="SourceGraphic"
         operator="in"
         result="composite1"
         id="feComposite1157" /><feGaussianBlur
         in="composite1"
         stdDeviation="6"
         result="blur"
         id="feGaussianBlur1159" /><feOffset
         dx="2.6"
         dy="2.6"
         result="offset"
         id="feOffset1161" /><feComposite
         in="SourceGraphic"
         in2="offset"
         operator="over"
         result="composite2"
         id="feComposite1163" /></filter></defs><sodipodi:namedview
     id="namedview16"
     pagecolor="#505050"
     bordercolor="#ffffff"
     borderopacity="1"
     inkscape:showpageshadow="0"
     inkscape:pageopacity="0"
     inkscape:pagecheckerboard="1"
     inkscape:deskcolor="#505050"
     inkscape:document-units="mm"
     showgrid="false"
     inkscape:zoom="4.3729297"
     inkscape:cx="81.066932"
     inkscape:cy="30.986091"
     inkscape:window-width="1426"
     inkscape:window-height="867"
     inkscape:window-x="6"
     inkscape:window-y="6"
     inkscape:window-maximized="1"
     inkscape:current-layer="svg14" /><rect
     x="0.68207783"
     y="1.0222173"
     width="24.492947"
     height="10.148869"
     ry="1.3984028"
     opacity="0.2"
     id="rect2"
     style="stroke-width:0.0321472" /><rect
     y="0.78304273"
     width="24.380428"
     height="9.997776"
     ry="1.3778286"
     fill="#334057"
     id="rect4"
     style="fill:url(#linearGradient535);fill-opacity:1;stroke-width:0.0321472"
     x="0.45383278" /><g
     transform="matrix(0.06297635,0.0019089,-0.0019089,0.06297635,11.084909,-1.5334841)"
     id="g10"><path
       d="m -155.3,179.3 78.38,-73.75 8.258,12.19 4.595,-2.896 27.71,55.35 65.98,-126.3 79.98,105.6 31.93,-57.73 69.67,87.79 -57.33,-43.63 -35,27.45 10.32,-23.06 -17.66,12.54 6.281,10.63 -75.57,-60.42 -71.77,87.15 21.8,-48.14 -27.74,31.45 5.939,16.69 -38.08,-34.05 -80.72,35.24 26.72,-25.31 z"
       fill="#ffffff"
       id="path8"
       style="filter:url(#filter1165)" /></g><path
     d="M 0.46669177,6.3573651 0.46356674,2.0335683 C 0.53515846,1.3909457 1.0036398,0.7962229 1.8327157,0.7939724 L 23.425983,0.7885134 c 0.892728,-0.008935 1.414799,0.6837707 1.400975,1.4418013 l 0.0075,3.3143755 -0.200985,-3.1594258 C 24.59845,1.834904 24.52612,0.9444268 23.125113,0.95053483 L 2.075133,1.0415757 C 0.95705352,1.04641 0.70759134,1.6083309 0.67769468,2.1991962 Z"
     fill="#ffffff"
     opacity="0.2"
     id="path12"
     style="stroke-width:0.0321472" /></svg>
